{
  "project_info": {
    "project_id": "travis-1185",
    "project_number": "108599311443",
    "name": "Travis"
  },
  "client": [
    {
      "client_info": {
        "mobilesdk_app_id": "1:108599311443:android:15e89915c75114f3",
        "client_id": "android:fhhgb.travis.philipp.travis_android",
        "client_type": 1,
        "android_client_info": {
          "package_name": "fhhgb.travis.philipp.travis_android",
          "certificate_hash": []
        }
      },
      "oauth_client": [],
      "api_key": [],
      "services": {
        "analytics_service": {
          "status": 1
        },
        "cloud_messaging_service": {
          "status": 2,
          "apns_config": []
        },
        "appinvite_service": {
          "status": 1,
          "other_platform_oauth_client": []
        },
        "google_signin_service": {
          "status": 1
        },
        "ads_service": {
          "status": 1
        }
      }
    }
  ],
  "client_info": [],
  "ARTIFACT_VERSION": "1"
}